^D:\USERS\USER-PC\DOCUMENTS\MAGSHIMIM\SECOND_YEAR\PROGRAMMING\L7-PROJECT\CHESS\CHESS\BOARD.CPP|D:\USERS\USER-PC\DOCUMENTS\MAGSHIMIM\SECOND_YEAR\PROGRAMMING\L7-PROJECT\CHESS\CHESS\GAMEMANAGER.CPP|D:\USERS\USER-PC\DOCUMENTS\MAGSHIMIM\SECOND_YEAR\PROGRAMMING\L7-PROJECT\CHESS\CHESS\PLAYER.CPP|D:\USERS\USER-PC\DOCUMENTS\MAGSHIMIM\SECOND_YEAR\PROGRAMMING\L7-PROJECT\CHESS\CHESS\SOLDIER.CPP|D:\USERS\USER-PC\DOCUMENTS\MAGSHIMIM\SECOND_YEAR\PROGRAMMING\L7-PROJECT\CHESS\CHESS\STDAFX.CPP
D:\USERS\USER-PC\DOCUMENTS\MAGSHIMIM\SECOND_YEAR\PROGRAMMING\L7-PROJECT\CHESS\CHESS\DEBUG\VC120.PDB
D:\USERS\USER-PC\DOCUMENTS\MAGSHIMIM\SECOND_YEAR\PROGRAMMING\L7-PROJECT\CHESS\CHESS\DEBUG\VC120.IDB
D:\USERS\USER-PC\DOCUMENTS\MAGSHIMIM\SECOND_YEAR\PROGRAMMING\L7-PROJECT\CHESS\CHESS\DEBUG\BOARD.OBJ
D:\USERS\USER-PC\DOCUMENTS\MAGSHIMIM\SECOND_YEAR\PROGRAMMING\L7-PROJECT\CHESS\CHESS\DEBUG\GAMEMANAGER.OBJ
D:\USERS\USER-PC\DOCUMENTS\MAGSHIMIM\SECOND_YEAR\PROGRAMMING\L7-PROJECT\CHESS\CHESS\DEBUG\SOLDIER.OBJ
D:\USERS\USER-PC\DOCUMENTS\MAGSHIMIM\SECOND_YEAR\PROGRAMMING\L7-PROJECT\CHESS\CHESS\DEBUG\STDAFX.OBJ
^D:\USERS\USER-PC\DOCUMENTS\MAGSHIMIM\SECOND_YEAR\PROGRAMMING\L7-PROJECT\CHESS\CHESS\BOARD.CPP
D:\USERS\USER-PC\DOCUMENTS\MAGSHIMIM\SECOND_YEAR\PROGRAMMING\L7-PROJECT\CHESS\CHESS\DEBUG\VC120.PDB
D:\USERS\USER-PC\DOCUMENTS\MAGSHIMIM\SECOND_YEAR\PROGRAMMING\L7-PROJECT\CHESS\CHESS\DEBUG\VC120.IDB
D:\USERS\USER-PC\DOCUMENTS\MAGSHIMIM\SECOND_YEAR\PROGRAMMING\L7-PROJECT\CHESS\CHESS\DEBUG\BOARD.OBJ
^D:\USERS\USER-PC\DOCUMENTS\MAGSHIMIM\SECOND_YEAR\PROGRAMMING\L7-PROJECT\CHESS\CHESS\GAMEMANAGER.CPP
D:\USERS\USER-PC\DOCUMENTS\MAGSHIMIM\SECOND_YEAR\PROGRAMMING\L7-PROJECT\CHESS\CHESS\DEBUG\VC120.PDB
D:\USERS\USER-PC\DOCUMENTS\MAGSHIMIM\SECOND_YEAR\PROGRAMMING\L7-PROJECT\CHESS\CHESS\DEBUG\VC120.IDB
D:\USERS\USER-PC\DOCUMENTS\MAGSHIMIM\SECOND_YEAR\PROGRAMMING\L7-PROJECT\CHESS\CHESS\DEBUG\GAMEMANAGER.OBJ
^D:\USERS\USER-PC\DOCUMENTS\MAGSHIMIM\SECOND_YEAR\PROGRAMMING\L7-PROJECT\CHESS\CHESS\PLAYER.CPP
D:\USERS\USER-PC\DOCUMENTS\MAGSHIMIM\SECOND_YEAR\PROGRAMMING\L7-PROJECT\CHESS\CHESS\DEBUG\VC120.PDB
D:\USERS\USER-PC\DOCUMENTS\MAGSHIMIM\SECOND_YEAR\PROGRAMMING\L7-PROJECT\CHESS\CHESS\DEBUG\VC120.IDB
D:\USERS\USER-PC\DOCUMENTS\MAGSHIMIM\SECOND_YEAR\PROGRAMMING\L7-PROJECT\CHESS\CHESS\DEBUG\PLAYER.OBJ
^D:\USERS\USER-PC\DOCUMENTS\MAGSHIMIM\SECOND_YEAR\PROGRAMMING\L7-PROJECT\CHESS\CHESS\SOLDIER.CPP
D:\USERS\USER-PC\DOCUMENTS\MAGSHIMIM\SECOND_YEAR\PROGRAMMING\L7-PROJECT\CHESS\CHESS\DEBUG\VC120.PDB
D:\USERS\USER-PC\DOCUMENTS\MAGSHIMIM\SECOND_YEAR\PROGRAMMING\L7-PROJECT\CHESS\CHESS\DEBUG\VC120.IDB
D:\USERS\USER-PC\DOCUMENTS\MAGSHIMIM\SECOND_YEAR\PROGRAMMING\L7-PROJECT\CHESS\CHESS\DEBUG\SOLDIER.OBJ
^D:\USERS\USER-PC\DOCUMENTS\MAGSHIMIM\SECOND_YEAR\PROGRAMMING\L7-PROJECT\CHESS\CHESS\STDAFX.CPP
D:\USERS\USER-PC\DOCUMENTS\MAGSHIMIM\SECOND_YEAR\PROGRAMMING\L7-PROJECT\CHESS\CHESS\DEBUG\VC120.PDB
^D:\USERS\USER-PC\DOCUMENTS\MAGSHIMIM\SECOND_YEAR\PROGRAMMING\L7-PROJECT\CHESS\CHESS\BOARD.CPP|D:\USERS\USER-PC\DOCUMENTS\MAGSHIMIM\SECOND_YEAR\PROGRAMMING\L7-PROJECT\CHESS\CHESS\GAMEMANAGER.CPP|D:\USERS\USER-PC\DOCUMENTS\MAGSHIMIM\SECOND_YEAR\PROGRAMMING\L7-PROJECT\CHESS\CHESS\PLAYER.CPP
D:\USERS\USER-PC\DOCUMENTS\MAGSHIMIM\SECOND_YEAR\PROGRAMMING\L7-PROJECT\CHESS\CHESS\DEBUG\VC120.PDB
D:\USERS\USER-PC\DOCUMENTS\MAGSHIMIM\SECOND_YEAR\PROGRAMMING\L7-PROJECT\CHESS\CHESS\DEBUG\VC120.IDB
D:\USERS\USER-PC\DOCUMENTS\MAGSHIMIM\SECOND_YEAR\PROGRAMMING\L7-PROJECT\CHESS\CHESS\DEBUG\GAMEMANAGER.OBJ
D:\USERS\USER-PC\DOCUMENTS\MAGSHIMIM\SECOND_YEAR\PROGRAMMING\L7-PROJECT\CHESS\CHESS\DEBUG\PLAYER.OBJ
D:\USERS\USER-PC\DOCUMENTS\MAGSHIMIM\SECOND_YEAR\PROGRAMMING\L7-PROJECT\CHESS\CHESS\DEBUG\BOARD.OBJ
^D:\USERS\USER-PC\DOCUMENTS\MAGSHIMIM\SECOND_YEAR\PROGRAMMING\L7-PROJECT\CHESS\CHESS\BOARD.CPP|D:\USERS\USER-PC\DOCUMENTS\MAGSHIMIM\SECOND_YEAR\PROGRAMMING\L7-PROJECT\CHESS\CHESS\PLAYER.CPP
D:\USERS\USER-PC\DOCUMENTS\MAGSHIMIM\SECOND_YEAR\PROGRAMMING\L7-PROJECT\CHESS\CHESS\DEBUG\VC120.PDB
D:\USERS\USER-PC\DOCUMENTS\MAGSHIMIM\SECOND_YEAR\PROGRAMMING\L7-PROJECT\CHESS\CHESS\DEBUG\VC120.IDB
D:\USERS\USER-PC\DOCUMENTS\MAGSHIMIM\SECOND_YEAR\PROGRAMMING\L7-PROJECT\CHESS\CHESS\DEBUG\BOARD.OBJ
D:\USERS\USER-PC\DOCUMENTS\MAGSHIMIM\SECOND_YEAR\PROGRAMMING\L7-PROJECT\CHESS\CHESS\DEBUG\PLAYER.OBJ
^D:\USERS\USER-PC\DOCUMENTS\MAGSHIMIM\SECOND_YEAR\PROGRAMMING\L7-PROJECT\CHESS\CHESS\SOURCE.CPP
D:\USERS\USER-PC\DOCUMENTS\MAGSHIMIM\SECOND_YEAR\PROGRAMMING\L7-PROJECT\CHESS\CHESS\DEBUG\VC120.PDB
D:\USERS\USER-PC\DOCUMENTS\MAGSHIMIM\SECOND_YEAR\PROGRAMMING\L7-PROJECT\CHESS\CHESS\DEBUG\VC120.IDB
D:\USERS\USER-PC\DOCUMENTS\MAGSHIMIM\SECOND_YEAR\PROGRAMMING\L7-PROJECT\CHESS\CHESS\DEBUG\SOURCE.OBJ
^D:\USERS\USER-PC\DOCUMENTS\MAGSHIMIM\SECOND_YEAR\PROGRAMMING\L7-PROJECT\CHESS\CHESS\BOARD.CPP|D:\USERS\USER-PC\DOCUMENTS\MAGSHIMIM\SECOND_YEAR\PROGRAMMING\L7-PROJECT\CHESS\CHESS\GAMEMANAGER.CPP|D:\USERS\USER-PC\DOCUMENTS\MAGSHIMIM\SECOND_YEAR\PROGRAMMING\L7-PROJECT\CHESS\CHESS\PLAYER.CPP|D:\USERS\USER-PC\DOCUMENTS\MAGSHIMIM\SECOND_YEAR\PROGRAMMING\L7-PROJECT\CHESS\CHESS\SOURCE.CPP
D:\USERS\USER-PC\DOCUMENTS\MAGSHIMIM\SECOND_YEAR\PROGRAMMING\L7-PROJECT\CHESS\CHESS\DEBUG\VC120.PDB
D:\USERS\USER-PC\DOCUMENTS\MAGSHIMIM\SECOND_YEAR\PROGRAMMING\L7-PROJECT\CHESS\CHESS\DEBUG\VC120.IDB
D:\USERS\USER-PC\DOCUMENTS\MAGSHIMIM\SECOND_YEAR\PROGRAMMING\L7-PROJECT\CHESS\CHESS\DEBUG\GAMEMANAGER.OBJ
D:\USERS\USER-PC\DOCUMENTS\MAGSHIMIM\SECOND_YEAR\PROGRAMMING\L7-PROJECT\CHESS\CHESS\DEBUG\SOURCE.OBJ
D:\USERS\USER-PC\DOCUMENTS\MAGSHIMIM\SECOND_YEAR\PROGRAMMING\L7-PROJECT\CHESS\CHESS\DEBUG\BOARD.OBJ
^D:\USERS\USER-PC\DOCUMENTS\MAGSHIMIM\SECOND_YEAR\PROGRAMMING\L7-PROJECT\CHESS\CHESS\BOARD.CPP|D:\USERS\USER-PC\DOCUMENTS\MAGSHIMIM\SECOND_YEAR\PROGRAMMING\L7-PROJECT\CHESS\CHESS\GAMEMANAGER.CPP|D:\USERS\USER-PC\DOCUMENTS\MAGSHIMIM\SECOND_YEAR\PROGRAMMING\L7-PROJECT\CHESS\CHESS\HELPERS.CPP|D:\USERS\USER-PC\DOCUMENTS\MAGSHIMIM\SECOND_YEAR\PROGRAMMING\L7-PROJECT\CHESS\CHESS\PLAYER.CPP|D:\USERS\USER-PC\DOCUMENTS\MAGSHIMIM\SECOND_YEAR\PROGRAMMING\L7-PROJECT\CHESS\CHESS\SOURCE.CPP
D:\USERS\USER-PC\DOCUMENTS\MAGSHIMIM\SECOND_YEAR\PROGRAMMING\L7-PROJECT\CHESS\CHESS\DEBUG\VC120.PDB
D:\USERS\USER-PC\DOCUMENTS\MAGSHIMIM\SECOND_YEAR\PROGRAMMING\L7-PROJECT\CHESS\CHESS\DEBUG\VC120.IDB
D:\USERS\USER-PC\DOCUMENTS\MAGSHIMIM\SECOND_YEAR\PROGRAMMING\L7-PROJECT\CHESS\CHESS\DEBUG\GAMEMANAGER.OBJ
D:\USERS\USER-PC\DOCUMENTS\MAGSHIMIM\SECOND_YEAR\PROGRAMMING\L7-PROJECT\CHESS\CHESS\DEBUG\SOURCE.OBJ
D:\USERS\USER-PC\DOCUMENTS\MAGSHIMIM\SECOND_YEAR\PROGRAMMING\L7-PROJECT\CHESS\CHESS\DEBUG\BOARD.OBJ
D:\USERS\USER-PC\DOCUMENTS\MAGSHIMIM\SECOND_YEAR\PROGRAMMING\L7-PROJECT\CHESS\CHESS\DEBUG\PLAYER.OBJ
^D:\USERS\USER-PC\DOCUMENTS\MAGSHIMIM\SECOND_YEAR\PROGRAMMING\L7-PROJECT\CHESS\CHESS\HELPERS.CPP
D:\USERS\USER-PC\DOCUMENTS\MAGSHIMIM\SECOND_YEAR\PROGRAMMING\L7-PROJECT\CHESS\CHESS\DEBUG\VC120.PDB
D:\USERS\USER-PC\DOCUMENTS\MAGSHIMIM\SECOND_YEAR\PROGRAMMING\L7-PROJECT\CHESS\CHESS\DEBUG\VC120.IDB
D:\USERS\USER-PC\DOCUMENTS\MAGSHIMIM\SECOND_YEAR\PROGRAMMING\L7-PROJECT\CHESS\CHESS\DEBUG\HELPERS.OBJ
^D:\USERS\USER-PC\DOCUMENTS\MAGSHIMIM\SECOND_YEAR\PROGRAMMING\L7-PROJECT\CHESS\CHESS\BOARD.CPP|D:\USERS\USER-PC\DOCUMENTS\MAGSHIMIM\SECOND_YEAR\PROGRAMMING\L7-PROJECT\CHESS\CHESS\HELPERS.CPP|D:\USERS\USER-PC\DOCUMENTS\MAGSHIMIM\SECOND_YEAR\PROGRAMMING\L7-PROJECT\CHESS\CHESS\PLAYER.CPP
D:\USERS\USER-PC\DOCUMENTS\MAGSHIMIM\SECOND_YEAR\PROGRAMMING\L7-PROJECT\CHESS\CHESS\DEBUG\VC120.PDB
D:\USERS\USER-PC\DOCUMENTS\MAGSHIMIM\SECOND_YEAR\PROGRAMMING\L7-PROJECT\CHESS\CHESS\DEBUG\VC120.IDB
D:\USERS\USER-PC\DOCUMENTS\MAGSHIMIM\SECOND_YEAR\PROGRAMMING\L7-PROJECT\CHESS\CHESS\DEBUG\HELPERS.OBJ
^D:\USERS\USER-PC\DOCUMENTS\MAGSHIMIM\SECOND_YEAR\PROGRAMMING\L7-PROJECT\CHESS\CHESS\PLAYER.CPP|D:\USERS\USER-PC\DOCUMENTS\MAGSHIMIM\SECOND_YEAR\PROGRAMMING\L7-PROJECT\CHESS\CHESS\SOLDIER.CPP
D:\USERS\USER-PC\DOCUMENTS\MAGSHIMIM\SECOND_YEAR\PROGRAMMING\L7-PROJECT\CHESS\CHESS\DEBUG\VC120.PDB
D:\USERS\USER-PC\DOCUMENTS\MAGSHIMIM\SECOND_YEAR\PROGRAMMING\L7-PROJECT\CHESS\CHESS\DEBUG\VC120.IDB
D:\USERS\USER-PC\DOCUMENTS\MAGSHIMIM\SECOND_YEAR\PROGRAMMING\L7-PROJECT\CHESS\CHESS\DEBUG\PLAYER.OBJ
D:\USERS\USER-PC\DOCUMENTS\MAGSHIMIM\SECOND_YEAR\PROGRAMMING\L7-PROJECT\CHESS\CHESS\DEBUG\SOLDIER.OBJ
^D:\USERS\USER-PC\DOCUMENTS\MAGSHIMIM\SECOND_YEAR\PROGRAMMING\L7-PROJECT\CHESS\CHESS\BOARD.CPP|D:\USERS\USER-PC\DOCUMENTS\MAGSHIMIM\SECOND_YEAR\PROGRAMMING\L7-PROJECT\CHESS\CHESS\GAMEMANAGER.CPP|D:\USERS\USER-PC\DOCUMENTS\MAGSHIMIM\SECOND_YEAR\PROGRAMMING\L7-PROJECT\CHESS\CHESS\PLAYER.CPP|D:\USERS\USER-PC\DOCUMENTS\MAGSHIMIM\SECOND_YEAR\PROGRAMMING\L7-PROJECT\CHESS\CHESS\SOLDIER.CPP|D:\USERS\USER-PC\DOCUMENTS\MAGSHIMIM\SECOND_YEAR\PROGRAMMING\L7-PROJECT\CHESS\CHESS\SOURCE.CPP
D:\USERS\USER-PC\DOCUMENTS\MAGSHIMIM\SECOND_YEAR\PROGRAMMING\L7-PROJECT\CHESS\CHESS\DEBUG\VC120.PDB
D:\USERS\USER-PC\DOCUMENTS\MAGSHIMIM\SECOND_YEAR\PROGRAMMING\L7-PROJECT\CHESS\CHESS\DEBUG\VC120.IDB
D:\USERS\USER-PC\DOCUMENTS\MAGSHIMIM\SECOND_YEAR\PROGRAMMING\L7-PROJECT\CHESS\CHESS\DEBUG\GAMEMANAGER.OBJ
D:\USERS\USER-PC\DOCUMENTS\MAGSHIMIM\SECOND_YEAR\PROGRAMMING\L7-PROJECT\CHESS\CHESS\DEBUG\PLAYER.OBJ
D:\USERS\USER-PC\DOCUMENTS\MAGSHIMIM\SECOND_YEAR\PROGRAMMING\L7-PROJECT\CHESS\CHESS\DEBUG\SOURCE.OBJ
D:\USERS\USER-PC\DOCUMENTS\MAGSHIMIM\SECOND_YEAR\PROGRAMMING\L7-PROJECT\CHESS\CHESS\DEBUG\BOARD.OBJ
D:\USERS\USER-PC\DOCUMENTS\MAGSHIMIM\SECOND_YEAR\PROGRAMMING\L7-PROJECT\CHESS\CHESS\DEBUG\SOLDIER.OBJ
^D:\USERS\USER-PC\DOCUMENTS\MAGSHIMIM\SECOND_YEAR\PROGRAMMING\L7-PROJECT\CHESS\CHESS\BOARD.CPP|D:\USERS\USER-PC\DOCUMENTS\MAGSHIMIM\SECOND_YEAR\PROGRAMMING\L7-PROJECT\CHESS\CHESS\GAMEMANAGER.CPP
D:\USERS\USER-PC\DOCUMENTS\MAGSHIMIM\SECOND_YEAR\PROGRAMMING\L7-PROJECT\CHESS\CHESS\DEBUG\VC120.PDB
D:\USERS\USER-PC\DOCUMENTS\MAGSHIMIM\SECOND_YEAR\PROGRAMMING\L7-PROJECT\CHESS\CHESS\DEBUG\VC120.IDB
D:\USERS\USER-PC\DOCUMENTS\MAGSHIMIM\SECOND_YEAR\PROGRAMMING\L7-PROJECT\CHESS\CHESS\DEBUG\GAMEMANAGER.OBJ
D:\USERS\USER-PC\DOCUMENTS\MAGSHIMIM\SECOND_YEAR\PROGRAMMING\L7-PROJECT\CHESS\CHESS\DEBUG\BOARD.OBJ
^D:\USERS\USER-PC\DOCUMENTS\MAGSHIMIM\SECOND_YEAR\PROGRAMMING\L7-PROJECT\CHESS\CHESS\BOARD.CPP|D:\USERS\USER-PC\DOCUMENTS\MAGSHIMIM\SECOND_YEAR\PROGRAMMING\L7-PROJECT\CHESS\CHESS\HELPERS.CPP|D:\USERS\USER-PC\DOCUMENTS\MAGSHIMIM\SECOND_YEAR\PROGRAMMING\L7-PROJECT\CHESS\CHESS\PLAYER.CPP|D:\USERS\USER-PC\DOCUMENTS\MAGSHIMIM\SECOND_YEAR\PROGRAMMING\L7-PROJECT\CHESS\CHESS\SOLDIER.CPP
D:\USERS\USER-PC\DOCUMENTS\MAGSHIMIM\SECOND_YEAR\PROGRAMMING\L7-PROJECT\CHESS\CHESS\DEBUG\VC120.PDB
D:\USERS\USER-PC\DOCUMENTS\MAGSHIMIM\SECOND_YEAR\PROGRAMMING\L7-PROJECT\CHESS\CHESS\DEBUG\VC120.IDB
D:\USERS\USER-PC\DOCUMENTS\MAGSHIMIM\SECOND_YEAR\PROGRAMMING\L7-PROJECT\CHESS\CHESS\DEBUG\BOARD.OBJ
D:\USERS\USER-PC\DOCUMENTS\MAGSHIMIM\SECOND_YEAR\PROGRAMMING\L7-PROJECT\CHESS\CHESS\DEBUG\HELPERS.OBJ
D:\USERS\USER-PC\DOCUMENTS\MAGSHIMIM\SECOND_YEAR\PROGRAMMING\L7-PROJECT\CHESS\CHESS\DEBUG\PLAYER.OBJ
D:\USERS\USER-PC\DOCUMENTS\MAGSHIMIM\SECOND_YEAR\PROGRAMMING\L7-PROJECT\CHESS\CHESS\DEBUG\SOLDIER.OBJ
^D:\USERS\USER-PC\DOCUMENTS\MAGSHIMIM\SECOND_YEAR\PROGRAMMING\L7-PROJECT\CHESS\CHESS\GAMEMANAGER.CPP|D:\USERS\USER-PC\DOCUMENTS\MAGSHIMIM\SECOND_YEAR\PROGRAMMING\L7-PROJECT\CHESS\CHESS\PLAYER.CPP
D:\USERS\USER-PC\DOCUMENTS\MAGSHIMIM\SECOND_YEAR\PROGRAMMING\L7-PROJECT\CHESS\CHESS\DEBUG\VC120.PDB
D:\USERS\USER-PC\DOCUMENTS\MAGSHIMIM\SECOND_YEAR\PROGRAMMING\L7-PROJECT\CHESS\CHESS\DEBUG\VC120.IDB
D:\USERS\USER-PC\DOCUMENTS\MAGSHIMIM\SECOND_YEAR\PROGRAMMING\L7-PROJECT\CHESS\CHESS\DEBUG\GAMEMANAGER.OBJ
D:\USERS\USER-PC\DOCUMENTS\MAGSHIMIM\SECOND_YEAR\PROGRAMMING\L7-PROJECT\CHESS\CHESS\DEBUG\PLAYER.OBJ
^D:\USERS\USER-PC\DOCUMENTS\MAGSHIMIM\SECOND_YEAR\PROGRAMMING\L7-PROJECT\CHESS\CHESS\PLAYER.CPP|D:\USERS\USER-PC\DOCUMENTS\MAGSHIMIM\SECOND_YEAR\PROGRAMMING\L7-PROJECT\CHESS\CHESS\SOURCE.CPP
D:\USERS\USER-PC\DOCUMENTS\MAGSHIMIM\SECOND_YEAR\PROGRAMMING\L7-PROJECT\CHESS\CHESS\DEBUG\VC120.PDB
D:\USERS\USER-PC\DOCUMENTS\MAGSHIMIM\SECOND_YEAR\PROGRAMMING\L7-PROJECT\CHESS\CHESS\DEBUG\VC120.IDB
D:\USERS\USER-PC\DOCUMENTS\MAGSHIMIM\SECOND_YEAR\PROGRAMMING\L7-PROJECT\CHESS\CHESS\DEBUG\PLAYER.OBJ
D:\USERS\USER-PC\DOCUMENTS\MAGSHIMIM\SECOND_YEAR\PROGRAMMING\L7-PROJECT\CHESS\CHESS\DEBUG\SOURCE.OBJ
^D:\USERS\USER-PC\DOCUMENTS\MAGSHIMIM\SECOND_YEAR\PROGRAMMING\L7-PROJECT\CHESS\CHESS\BOARD.CPP|D:\USERS\USER-PC\DOCUMENTS\MAGSHIMIM\SECOND_YEAR\PROGRAMMING\L7-PROJECT\CHESS\CHESS\HELPERS.CPP
D:\USERS\USER-PC\DOCUMENTS\MAGSHIMIM\SECOND_YEAR\PROGRAMMING\L7-PROJECT\CHESS\CHESS\DEBUG\VC120.PDB
D:\USERS\USER-PC\DOCUMENTS\MAGSHIMIM\SECOND_YEAR\PROGRAMMING\L7-PROJECT\CHESS\CHESS\DEBUG\VC120.IDB
D:\USERS\USER-PC\DOCUMENTS\MAGSHIMIM\SECOND_YEAR\PROGRAMMING\L7-PROJECT\CHESS\CHESS\DEBUG\BOARD.OBJ
D:\USERS\USER-PC\DOCUMENTS\MAGSHIMIM\SECOND_YEAR\PROGRAMMING\L7-PROJECT\CHESS\CHESS\DEBUG\HELPERS.OBJ
^D:\USERS\USER-PC\DOCUMENTS\MAGSHIMIM\SECOND_YEAR\PROGRAMMING\L7-PROJECT\CHESS\CHESS\BOARD.CPP|D:\USERS\USER-PC\DOCUMENTS\MAGSHIMIM\SECOND_YEAR\PROGRAMMING\L7-PROJECT\CHESS\CHESS\SOLDIER.CPP
D:\USERS\USER-PC\DOCUMENTS\MAGSHIMIM\SECOND_YEAR\PROGRAMMING\L7-PROJECT\CHESS\CHESS\DEBUG\VC120.PDB
D:\USERS\USER-PC\DOCUMENTS\MAGSHIMIM\SECOND_YEAR\PROGRAMMING\L7-PROJECT\CHESS\CHESS\DEBUG\VC120.IDB
D:\USERS\USER-PC\DOCUMENTS\MAGSHIMIM\SECOND_YEAR\PROGRAMMING\L7-PROJECT\CHESS\CHESS\DEBUG\BOARD.OBJ
D:\USERS\USER-PC\DOCUMENTS\MAGSHIMIM\SECOND_YEAR\PROGRAMMING\L7-PROJECT\CHESS\CHESS\DEBUG\SOLDIER.OBJ
^D:\USERS\USER-PC\DOCUMENTS\MAGSHIMIM\SECOND_YEAR\PROGRAMMING\L7-PROJECT\CHESS\CHESS\HELPERS.CPP|D:\USERS\USER-PC\DOCUMENTS\MAGSHIMIM\SECOND_YEAR\PROGRAMMING\L7-PROJECT\CHESS\CHESS\SOLDIER.CPP
D:\USERS\USER-PC\DOCUMENTS\MAGSHIMIM\SECOND_YEAR\PROGRAMMING\L7-PROJECT\CHESS\CHESS\DEBUG\VC120.PDB
D:\USERS\USER-PC\DOCUMENTS\MAGSHIMIM\SECOND_YEAR\PROGRAMMING\L7-PROJECT\CHESS\CHESS\DEBUG\VC120.IDB
D:\USERS\USER-PC\DOCUMENTS\MAGSHIMIM\SECOND_YEAR\PROGRAMMING\L7-PROJECT\CHESS\CHESS\DEBUG\HELPERS.OBJ
D:\USERS\USER-PC\DOCUMENTS\MAGSHIMIM\SECOND_YEAR\PROGRAMMING\L7-PROJECT\CHESS\CHESS\DEBUG\SOLDIER.OBJ
^D:\USERS\USER-PC\DOCUMENTS\MAGSHIMIM\SECOND_YEAR\PROGRAMMING\L7-PROJECT\CHESS\CHESS\BOARD.CPP|D:\USERS\USER-PC\DOCUMENTS\MAGSHIMIM\SECOND_YEAR\PROGRAMMING\L7-PROJECT\CHESS\CHESS\GAMEMANAGER.CPP|D:\USERS\USER-PC\DOCUMENTS\MAGSHIMIM\SECOND_YEAR\PROGRAMMING\L7-PROJECT\CHESS\CHESS\HELPERS.CPP|D:\USERS\USER-PC\DOCUMENTS\MAGSHIMIM\SECOND_YEAR\PROGRAMMING\L7-PROJECT\CHESS\CHESS\PLAYER.CPP|D:\USERS\USER-PC\DOCUMENTS\MAGSHIMIM\SECOND_YEAR\PROGRAMMING\L7-PROJECT\CHESS\CHESS\SOLDIER.CPP|D:\USERS\USER-PC\DOCUMENTS\MAGSHIMIM\SECOND_YEAR\PROGRAMMING\L7-PROJECT\CHESS\CHESS\SOURCE.CPP
D:\USERS\USER-PC\DOCUMENTS\MAGSHIMIM\SECOND_YEAR\PROGRAMMING\L7-PROJECT\CHESS\CHESS\DEBUG\VC120.PDB
D:\USERS\USER-PC\DOCUMENTS\MAGSHIMIM\SECOND_YEAR\PROGRAMMING\L7-PROJECT\CHESS\CHESS\DEBUG\VC120.IDB
D:\USERS\USER-PC\DOCUMENTS\MAGSHIMIM\SECOND_YEAR\PROGRAMMING\L7-PROJECT\CHESS\CHESS\DEBUG\BOARD.OBJ
D:\USERS\USER-PC\DOCUMENTS\MAGSHIMIM\SECOND_YEAR\PROGRAMMING\L7-PROJECT\CHESS\CHESS\DEBUG\GAMEMANAGER.OBJ
D:\USERS\USER-PC\DOCUMENTS\MAGSHIMIM\SECOND_YEAR\PROGRAMMING\L7-PROJECT\CHESS\CHESS\DEBUG\HELPERS.OBJ
D:\USERS\USER-PC\DOCUMENTS\MAGSHIMIM\SECOND_YEAR\PROGRAMMING\L7-PROJECT\CHESS\CHESS\DEBUG\PLAYER.OBJ
D:\USERS\USER-PC\DOCUMENTS\MAGSHIMIM\SECOND_YEAR\PROGRAMMING\L7-PROJECT\CHESS\CHESS\DEBUG\SOLDIER.OBJ
D:\USERS\USER-PC\DOCUMENTS\MAGSHIMIM\SECOND_YEAR\PROGRAMMING\L7-PROJECT\CHESS\CHESS\DEBUG\SOURCE.OBJ
^D:\USERS\USER-PC\DOCUMENTS\MAGSHIMIM\SECOND_YEAR\PROGRAMMING\L7-PROJECT\CHESS\CHESS\BOARD.CPP|D:\USERS\USER-PC\DOCUMENTS\MAGSHIMIM\SECOND_YEAR\PROGRAMMING\L7-PROJECT\CHESS\CHESS\GAMEMANAGER.CPP|D:\USERS\USER-PC\DOCUMENTS\MAGSHIMIM\SECOND_YEAR\PROGRAMMING\L7-PROJECT\CHESS\CHESS\PLAYER.CPP|D:\USERS\USER-PC\DOCUMENTS\MAGSHIMIM\SECOND_YEAR\PROGRAMMING\L7-PROJECT\CHESS\CHESS\SOLDIER.CPP
D:\USERS\USER-PC\DOCUMENTS\MAGSHIMIM\SECOND_YEAR\PROGRAMMING\L7-PROJECT\CHESS\CHESS\DEBUG\VC120.PDB
D:\USERS\USER-PC\DOCUMENTS\MAGSHIMIM\SECOND_YEAR\PROGRAMMING\L7-PROJECT\CHESS\CHESS\DEBUG\VC120.IDB
D:\USERS\USER-PC\DOCUMENTS\MAGSHIMIM\SECOND_YEAR\PROGRAMMING\L7-PROJECT\CHESS\CHESS\DEBUG\BOARD.OBJ
D:\USERS\USER-PC\DOCUMENTS\MAGSHIMIM\SECOND_YEAR\PROGRAMMING\L7-PROJECT\CHESS\CHESS\DEBUG\GAMEMANAGER.OBJ
D:\USERS\USER-PC\DOCUMENTS\MAGSHIMIM\SECOND_YEAR\PROGRAMMING\L7-PROJECT\CHESS\CHESS\DEBUG\PLAYER.OBJ
D:\USERS\USER-PC\DOCUMENTS\MAGSHIMIM\SECOND_YEAR\PROGRAMMING\L7-PROJECT\CHESS\CHESS\DEBUG\SOLDIER.OBJ
